PM 566 Final Project - PM 566 Final Project: Analysing Vaccine Preventable Diseases and Vaccine Hesitancy in California
…
#No issues found in data irregularities. Year and Count variables numeric. Disease & County variables are character class. _id variable is irrelevant in this analysis.}

hav <- county |> filter (Disease == 'Hepatitis A') |> filter (County != 'Los Angeles')
hav |> arrange(desc(Count))

# A tibble: 367 × 5
   `_id` Disease     County          Year Count
   <dbl> <chr>       <chr>          <dbl> <dbl>
 1  1753 Hepatitis A San Diego       2017   585
 2  1837 Hepatitis A Santa Cruz      2017    77
 3  1749 Hepatitis A San Diego       2013    40
 4  1743 Hepatitis A San Bernardino  2019    39
 5  1748 Hepatitis A San Diego       2012    38
 6  1754 Hepatitis A San Diego       2018    35
 7  1758 Hepatitis A San Diego       2022    30
 8  1708 Hepatitis A Riverside       2020    28
 9  1668 Hepatitis A Orange          2016    26
10  1752 Hepatitis A San Diego       2016    26
# ℹ 357 more rows
…
